<svg xmlns="http://www.w3.org/2000/svg" width="1240.111" height="5" viewBox="0 0 1240.111 5">
  <g id="Grupo_2183" data-name="Grupo 2183" transform="translate(0 -674.984)">
    <rect id="Rectángulo_135" data-name="Rectángulo 135" width="219.232" height="5" transform="translate(0 674.985)" fill="#044e31"/>
    <rect id="Rectángulo_136" data-name="Rectángulo 136" width="458.161" height="5" transform="translate(208.351 674.985)" fill="#5ab031"/>
    <rect id="Rectángulo_137" data-name="Rectángulo 137" width="266.689" height="5" transform="translate(666.025 674.985)" fill="#f6b521"/>
    <rect id="Rectángulo_138" data-name="Rectángulo 138" width="213.353" height="5" transform="translate(1026.758 674.985)" fill="#cb004c"/>
    <rect id="Rectángulo_139" data-name="Rectángulo 139" width="106.676" height="5" transform="translate(927.355 674.985)" fill="#0096d6"/>
  </g>
</svg>
