<svg xmlns="http://www.w3.org/2000/svg" width="34.574" height="41.248" viewBox="0 0 34.574 41.248">
  <g id="Grupo_1365" data-name="Grupo 1365" transform="translate(0.3 0.3)">
    <path id="Trazado_1782" data-name="Trazado 1782" d="M1482.086,610.811h16.984a.327.327,0,1,0,0-.653h-16.984a.327.327,0,1,0,0,.653Z" transform="translate(-1473.594 -601.282)" fill="#5ab031" stroke="#59ae30" stroke-width="0.6"/>
    <path id="Trazado_1783" data-name="Trazado 1783" d="M1482.086,621h16.984a.327.327,0,1,0,0-.653h-16.984a.327.327,0,1,0,0,.653Z" transform="translate(-1473.594 -607.034)" fill="#5ab031" stroke="#59ae30" stroke-width="0.6"/>
    <path id="Trazado_1784" data-name="Trazado 1784" d="M1482.086,631.188h16.984a.327.327,0,1,0,0-.653h-16.984a.327.327,0,1,0,0,.653Z" transform="translate(-1473.594 -612.785)" fill="#5ab031" stroke="#59ae30" stroke-width="0.6"/>
    <path id="Trazado_1785" data-name="Trazado 1785" d="M1482.086,641.433h16.984a.327.327,0,1,0,0-.653h-16.984a.327.327,0,1,0,0,.653Z" transform="translate(-1473.594 -618.569)" fill="#5ab031" stroke="#59ae30" stroke-width="0.6"/>
    <path id="Trazado_1786" data-name="Trazado 1786" d="M1496.983,618.869V590.1a.327.327,0,0,0-.327-.327h-33.321a.327.327,0,0,0-.327.327v40a.327.327,0,0,0,.327.327h33.321a.327.327,0,0,0,.327-.327V618.87Zm-33.321-28.439h32.668v27.95a14.523,14.523,0,0,0-5.107-.884c-6.385-.1-10.062,2.569-13.294,4.931-2.576,1.881-4.8,3.506-7.952,3.506-3.795,0-6.273-2.032-6.315-5.176Zm0,39.342v-6.4c1.059,1.988,3.339,3.211,6.315,3.211,3.365,0,5.78-1.764,8.337-3.632,3.089-2.256,6.582-4.808,12.545-4.808q.175,0,.352,0a13.615,13.615,0,0,1,5.118.935v10.688Z" transform="translate(-1463.009 -589.777)" fill="#5ab031" stroke="#59ae30" stroke-width="0.6"/>
  </g>
</svg>
