<svg xmlns="http://www.w3.org/2000/svg" width="34.909" height="23.271" viewBox="0 0 34.909 23.271">
  <g id="_555419" data-name="555419" transform="translate(0 -85.338)">
    <rect id="Rectángulo_751" data-name="Rectángulo 751" width="34.909" height="23.272" transform="translate(0 85.337)" fill="#f0f0f0"/>
    <rect id="Rectángulo_752" data-name="Rectángulo 752" width="34.909" height="7.757" transform="translate(0 85.337)" fill="#d80027"/>
    <rect id="Rectángulo_753" data-name="Rectángulo 753" width="34.909" height="7.757" transform="translate(0 100.852)" fill="#0052b4"/>
    <path id="Trazado_2876" data-name="Trazado 2876" d="M214.038,216.738l-.859.859a2.024,2.024,0,1,1-2.862,0l-.859-.859a3.238,3.238,0,1,0,4.579,0Z" transform="translate(-194.294 -122.442)" fill="#6da544"/>
    <path id="Trazado_2877" data-name="Trazado 2877" d="M238.552,232.51l.3.928h.975l-.789.573.3.928-.789-.573-.789.573.3-.928-.789-.573h.975Z" transform="translate(-221.097 -137.138)" fill="#ffda44"/>
  </g>
</svg>
