<svg xmlns="http://www.w3.org/2000/svg" width="35.507" height="23.67" viewBox="0 0 35.507 23.67">
  <g id="_555641" data-name="555641" transform="translate(0 -85.338)">
    <rect id="Rectángulo_763" data-name="Rectángulo 763" width="35.507" height="23.671" transform="translate(0 85.337)" fill="#f0f0f0"/>
    <g id="Grupo_2103" data-name="Grupo 2103" transform="translate(0 85.337)">
      <rect id="Rectángulo_764" data-name="Rectángulo 764" width="35.507" height="3.382" transform="translate(0 0)" fill="#338af3"/>
      <rect id="Rectángulo_765" data-name="Rectángulo 765" width="35.507" height="3.382" transform="translate(0 6.763)" fill="#338af3"/>
      <rect id="Rectángulo_766" data-name="Rectángulo 766" width="35.507" height="3.382" transform="translate(0 13.527)" fill="#338af3"/>
      <rect id="Rectángulo_767" data-name="Rectángulo 767" width="35.507" height="3.382" transform="translate(0 20.289)" fill="#338af3"/>
    </g>
    <rect id="Rectángulo_768" data-name="Rectángulo 768" width="17.753" height="13.527" transform="translate(0 85.337)" fill="#f0f0f0"/>
    <path id="Trazado_2879" data-name="Trazado 2879" d="M72.877,126.2l-1.814.853.966,1.756-1.969-.377-.25,1.989-1.372-1.463-1.372,1.463-.249-1.989-1.969.377.966-1.756L64,126.2l1.814-.853-.966-1.756,1.969.377.25-1.989,1.372,1.463,1.372-1.463.249,1.989,1.969-.377-.966,1.756Z" transform="translate(-59.562 -34.097)" fill="#ffda44"/>
  </g>
</svg>
