<svg xmlns="http://www.w3.org/2000/svg" width="31.795" height="31.585" viewBox="0 0 31.795 31.585">
  <path id="Trazado_2792" data-name="Trazado 2792" d="M3080.312,869.32V850.449a1.487,1.487,0,0,0-1.486-1.485h-7.708a1.487,1.487,0,0,0-1.485,1.485v5.332h-5.407a1.487,1.487,0,0,0-1.485,1.486v5.35h-5.407a1.487,1.487,0,0,0-1.485,1.485v5.406H3050.4a1.486,1.486,0,0,0-1.358.888.248.248,0,0,0-.115.193c-.008.115-.005.227-.006.341,0,.021-.007.042-.007.063v7.67a1.487,1.487,0,0,0,1.485,1.486h28.424a1.487,1.487,0,0,0,1.486-1.486v-9.342Zm-29.909.69h5.948V864.1a.984.984,0,0,1,.982-.983h5.91v-5.853a.984.984,0,0,1,.983-.983h5.91v-5.834a.984.984,0,0,1,.983-.983h7.708a.984.984,0,0,1,.983.983v18.5a13.335,13.335,0,0,0-4.788-.845c-5.916-.1-9.3,2.377-12.293,4.562-2.4,1.749-4.464,3.26-7.4,3.26a6.344,6.344,0,0,1-4.709-1.74,4.557,4.557,0,0,1-1.192-3.247A.981.981,0,0,1,3050.4,870.011Zm28.424,9.636H3050.4a.984.984,0,0,1-.983-.983V873.3a4.765,4.765,0,0,0,.832,1.22,6.836,6.836,0,0,0,5.075,1.9c3.1,0,5.335-1.631,7.7-3.357,2.926-2.138,6.246-4.575,11.988-4.465a12.647,12.647,0,0,1,4.8.885v9.177A.984.984,0,0,1,3078.826,879.647Z" transform="translate(-3048.717 -848.764)" fill="#fff" stroke="#fff" stroke-width="0.4"/>
</svg>
